Bumblebee Lab 11
…
In 1988, there were 15 variations on Ariel for female babies in the dataset.

## # A tibble: 25 x 5
##     year sex   name        n      prop
##    <dbl> <chr> <chr>   <int>     <dbl>
##  1  1990 F     Ariel    3606 0.00176  
##  2  1990 F     Arielle  1569 0.000764 
##  3  1990 F     Aerial     84 0.0000409
##  4  1990 F     Ariell     69 0.0000336
##  5  1990 F     Ariele     47 0.0000229
##  6  1990 F     Aeriel     46 0.0000224
##  7  1990 F     Arial      45 0.0000219
##  8  1990 F     Areil      26 0.0000127
##  9  1990 F     Airel      23 0.0000112
## 10  1990 F     Arriel     23 0.0000112
## # ... with 15 more rows
…
